<svg xmlns="http://www.w3.org/2000/svg" width="46.233" height="44.38" viewBox="0 0 46.233 44.38">
  <g id="XMLID_806_" transform="translate(0 -10.262)">
    <g id="XMLID_386_" transform="translate(0 10.262)">
      <path id="XMLID_389_" d="M46.144,34.587A18.226,18.226,0,0,0,31.971,18.606V16.311a3.07,3.07,0,0,0-.741-6.049h-6.5a3.07,3.07,0,0,0-.741,6.049v2.3A18.132,18.132,0,0,0,15.095,23.5a18.328,18.328,0,0,0-1.533,1.74c-.023,0-.045,0-.068,0H7.058a.9.9,0,0,0,0,1.806h5.275a18.1,18.1,0,0,0-1.6,3.471H.9a.9.9,0,0,0,0,1.806h9.318a18.36,18.36,0,0,0-.448,3.471H5.779a.9.9,0,0,0,0,1.806H9.8a18.333,18.333,0,0,0,.564,3.471H4.515a.9.9,0,1,0,0,1.806h6.426A18.238,18.238,0,0,0,26.19,54.554q.895.088,1.79.088A18.284,18.284,0,0,0,37.934,51.7a.9.9,0,1,0-.986-1.513,16.434,16.434,0,1,1,4.84-4.847.9.9,0,1,0,1.515.984A18.3,18.3,0,0,0,46.144,34.587ZM23.464,13.332a1.266,1.266,0,0,1,1.264-1.264h6.5a1.264,1.264,0,0,1,0,2.528h-6.5A1.266,1.266,0,0,1,23.464,13.332ZM25.793,18.3V16.4h4.372v1.9A18.4,18.4,0,0,0,25.793,18.3Z" transform="translate(0 -10.262)"/>
      <path id="XMLID_391_" d="M436.673,425.5a.9.9,0,1,0,.638.265A.908.908,0,0,0,436.673,425.5Z" transform="translate(-396.42 -388.004)"/>
      <path id="XMLID_394_" d="M168.88,144.609a14.008,14.008,0,1,0,14.008,14.008A14.024,14.024,0,0,0,168.88,144.609Zm0,26.21a12.2,12.2,0,1,1,12.2-12.2A12.216,12.216,0,0,1,168.88,170.819Z" transform="translate(-140.887 -132.477)"/>
      <path id="XMLID_397_" d="M267.531,219.676l-4.473,4.472a2.8,2.8,0,0,0-2.479,0l-2-2a.9.9,0,0,0-1.277,1.277l2,2a2.806,2.806,0,1,0,5.033,0l4.341-4.341h0l.131-.131a.9.9,0,0,0-1.277-1.277Zm-5.712,7.989a1,1,0,1,1,1-1A1,1,0,0,1,261.819,227.665Z" transform="translate(-233.826 -200.525)"/>
      <path id="XMLID_398_" d="M399.395,289.86h-.837a.9.9,0,1,0,0,1.806h.837a.9.9,0,1,0,0-1.806Z" transform="translate(-361.747 -264.612)"/>
      <path id="XMLID_399_" d="M194.822,289.616h-.837a.9.9,0,0,0,0,1.806h.837a.9.9,0,1,0,0-1.806Z" transform="translate(-175.647 -264.39)"/>
      <path id="XMLID_400_" d="M301.026,185.462a.9.9,0,0,0,.9-.9v-.837a.9.9,0,0,0-1.806,0v.837A.9.9,0,0,0,301.026,185.462Z" transform="translate(-273.022 -167.237)"/>
      <path id="XMLID_424_" d="M300.782,387.393a.9.9,0,0,0-.9.9v.837a.9.9,0,1,0,1.806,0V388.3A.9.9,0,0,0,300.782,387.393Z" transform="translate(-272.8 -353.338)"/>
      <path id="XMLID_425_" d="M.9,351.44a.9.9,0,1,0,.638,1.541A.9.9,0,0,0,.9,351.44Z" transform="translate(0 -320.632)"/>
    </g>
  </g>
</svg>
