<svg xmlns="http://www.w3.org/2000/svg" width="42.688" height="42.688" viewBox="0 0 42.688 42.688">
  <g id="icon-3" transform="translate(0)">
    <path id="Caminho_18" data-name="Caminho 18" d="M26.31,0A16.4,16.4,0,0,0,11.733,23.84L1.475,34.1a5.032,5.032,0,1,0,7.117,7.117L18.85,30.957A16.378,16.378,0,1,0,26.31,0ZM6.823,39.448a2.531,2.531,0,0,1-3.58-3.58l4.8-4.8,3.58,3.58Zm6.565-6.566L9.809,29.3l3.275-3.275a16.521,16.521,0,0,0,3.58,3.58ZM26.31,30.256A13.877,13.877,0,1,1,40.187,16.379,13.893,13.893,0,0,1,26.31,30.256Zm0,0"/>
    <path id="Caminho_19" data-name="Caminho 19" d="M203.078,126.285c-.2-.222-4.92-5.429-10.935-5.429s-10.737,5.207-10.936,5.429a1.251,1.251,0,0,0,0,1.667c.2.221,4.921,5.429,10.936,5.429s10.737-5.207,10.935-5.429A1.25,1.25,0,0,0,203.078,126.285Zm-10.924,4.589a3.752,3.752,0,1,1,3.752-3.752A3.756,3.756,0,0,1,192.154,130.874Zm-6.008-5.482a6.223,6.223,0,0,0-.005,3.442,18.382,18.382,0,0,1-2.218-1.718A18.191,18.191,0,0,1,186.146,125.392Zm12.026,3.423a6.221,6.221,0,0,0,0-3.4,18.337,18.337,0,0,1,2.19,1.7A18.367,18.367,0,0,1,198.172,128.815Zm0,0" transform="translate(-165.807 -110.779)"/>
    <path id="Caminho_20" data-name="Caminho 20" d="M303.505,182.263a1.251,1.251,0,1,1-1.251-1.251A1.251,1.251,0,0,1,303.505,182.263Zm0,0" transform="translate(-275.908 -165.92)"/>
  </g>
</svg>
