<svg id="bed_1_" data-name="bed (1)" xmlns="http://www.w3.org/2000/svg" width="58.727" height="53.944" viewBox="0 0 58.727 53.944">
  <path id="Caminho_134" data-name="Caminho 134" d="M57.837,179.322a.89.89,0,0,0-.89.89v2.939H1.779V170.082a.89.89,0,1,0-1.779,0v30.658a.89.89,0,0,0,1.779,0v-7.166H56.947v7.166a.89.89,0,0,0,1.779,0v-20.53a.89.89,0,0,0-.89-.887Zm0,0" transform="translate(0 -147.685)"/>
  <path id="Caminho_135" data-name="Caminho 135" d="M28.544,203.657h2.539a4.6,4.6,0,0,0,4.593-4.586v-.553A4.551,4.551,0,0,0,31.083,194h-2.54A3.5,3.5,0,0,0,25,197.5v2.585A3.559,3.559,0,0,0,28.544,203.657Zm0,0" transform="translate(-21.822 -169.339)"/>
  <path id="Caminho_136" data-name="Caminho 136" d="M125.874,193.993a.836.836,0,0,0-.875.836v7.925a.885.885,0,0,0,.875.9H162.1a.912.912,0,0,0,.907-.9v-.807a7.984,7.984,0,0,0-8.026-7.954Zm0,0" transform="translate(-109.11 -169.333)"/>
  <path id="Caminho_138" data-name="Caminho 138" d="M52.2,20.338H52.2A10.169,10.169,0,0,0,52.216,0h-.008A10.169,10.169,0,0,0,52.2,20.338ZM46.646,8.757a.879.879,0,0,1,.89-.877h0l2.433,0V5.444a.867.867,0,0,1,.261-.618.879.879,0,0,1,.628-.249l2.708-.01a.884.884,0,0,1,.89.884V7.877h2.433a.89.89,0,0,1,.89.89v2.692a.874.874,0,0,1-.89.871h0l-2.433.017v2.439a.846.846,0,0,1-.261.608.874.874,0,0,1-.63.24h0l-2.71.022a.879.879,0,0,1-.89-.878V12.354H47.532a.887.887,0,0,1-.89-.889Zm0,0" transform="translate(-36.691 0)"/>
</svg>
