<svg xmlns="http://www.w3.org/2000/svg" width="1920" height="1049.232" viewBox="0 0 1920 1049.232">
  <path id="Caminho_13" data-name="Caminho 13" d="M-1559-951.5c387.074,0,605.228,94.387,960.049,94.387S-22.885-951.5,361-951.5V5.564c-408.107,0-601.869,92.166-959.951,92.166S-1182.969,5.564-1559,5.564Z" transform="translate(1559 951.502)" fill="#eaeaea"/>
</svg>
